<?xml version="1.0" encoding="UTF-8" standalone="no"?>
<!-- Created with Inkscape (http://www.inkscape.org/) -->

<svg
   xmlns:dc="http://purl.org/dc/elements/1.1/"
   xmlns:cc="http://creativecommons.org/ns#"
   xmlns:rdf="http://www.w3.org/1999/02/22-rdf-syntax-ns#"
   xmlns:svg="http://www.w3.org/2000/svg"
   xmlns="http://www.w3.org/2000/svg"
   xmlns:sodipodi="http://sodipodi.sourceforge.net/DTD/sodipodi-0.dtd"
   xmlns:inkscape="http://www.inkscape.org/namespaces/inkscape"
   width="145.23862mm"
   height="137.18831mm"
   viewBox="0 0 145.23862 137.18831"
   version="1.1"
   id="svg8"
   inkscape:version="0.92.4 (5da689c313, 2019-01-14)"
   sodipodi:docname="tactos_dbus_ipc.svg">
  <defs
     id="defs2">
    <marker
       inkscape:isstock="true"
       style="overflow:visible"
       id="marker1352"
       refX="0"
       refY="0"
       orient="auto"
       inkscape:stockid="Arrow1Lend">
      <path
         transform="matrix(-0.8,0,0,-0.8,-10,0)"
         style="fill:#000000;fill-opacity:1;fill-rule:evenodd;stroke:#000000;stroke-width:1.00000003pt;stroke-opacity:1"
         d="M 0,0 5,-5 -12.5,0 5,5 Z"
         id="path1350"
         inkscape:connector-curvature="0" />
    </marker>
    <marker
       inkscape:stockid="Arrow1Lend"
       orient="auto"
       refY="0"
       refX="0"
       id="marker1310"
       style="overflow:visible"
       inkscape:isstock="true"
       inkscape:collect="always">
      <path
         id="path1308"
         d="M 0,0 5,-5 -12.5,0 5,5 Z"
         style="fill:#000000;fill-opacity:1;fill-rule:evenodd;stroke:#000000;stroke-width:1.00000003pt;stroke-opacity:1"
         transform="matrix(-0.8,0,0,-0.8,-10,0)"
         inkscape:connector-curvature="0" />
    </marker>
    <marker
       inkscape:isstock="true"
       style="overflow:visible"
       id="marker1248"
       refX="0"
       refY="0"
       orient="auto"
       inkscape:stockid="Arrow1Lend"
       inkscape:collect="always">
      <path
         transform="matrix(-0.8,0,0,-0.8,-10,0)"
         style="fill:#000000;fill-opacity:1;fill-rule:evenodd;stroke:#000000;stroke-width:1.00000003pt;stroke-opacity:1"
         d="M 0,0 5,-5 -12.5,0 5,5 Z"
         id="path1246"
         inkscape:connector-curvature="0" />
    </marker>
    <marker
       inkscape:stockid="Arrow1Lend"
       orient="auto"
       refY="0"
       refX="0"
       id="Arrow1Lend"
       style="overflow:visible"
       inkscape:isstock="true"
       inkscape:collect="always">
      <path
         id="path957"
         d="M 0,0 5,-5 -12.5,0 5,5 Z"
         style="fill:#000000;fill-opacity:1;fill-rule:evenodd;stroke:#000000;stroke-width:1.00000003pt;stroke-opacity:1"
         transform="matrix(-0.8,0,0,-0.8,-10,0)"
         inkscape:connector-curvature="0" />
    </marker>
  </defs>
  <sodipodi:namedview
     id="base"
     pagecolor="#ffffff"
     bordercolor="#666666"
     borderopacity="1.0"
     inkscape:pageopacity="0.0"
     inkscape:pageshadow="2"
     inkscape:zoom="0.86523906"
     inkscape:cx="-224.95617"
     inkscape:cy="221.05273"
     inkscape:document-units="mm"
     inkscape:current-layer="layer1"
     showgrid="false"
     inkscape:window-width="1916"
     inkscape:window-height="1055"
     inkscape:window-x="0"
     inkscape:window-y="0"
     inkscape:window-maximized="0"
     fit-margin-top="0"
     fit-margin-left="0"
     fit-margin-right="0"
     fit-margin-bottom="0" />
  <metadata
     id="metadata5">
    <rdf:RDF>
      <cc:Work
         rdf:about="">
        <dc:format>image/svg+xml</dc:format>
        <dc:type
           rdf:resource="http://purl.org/dc/dcmitype/StillImage" />
        <dc:title />
      </cc:Work>
    </rdf:RDF>
  </metadata>
  <g
     inkscape:label="Calque 1"
     inkscape:groupmode="layer"
     id="layer1"
     transform="translate(-26.602681,-41.936488)">
    <rect
       style="opacity:1;fill:none;fill-opacity:1;stroke:#000000;stroke-width:0.82555521;stroke-linecap:square;stroke-linejoin:round;stroke-miterlimit:4;stroke-dasharray:none;stroke-dashoffset:0;stroke-opacity:1"
       id="rect815"
       width="132.33391"
       height="29.234604"
       x="36.216869"
       y="42.349266"
       ry="2.4489725" />
    <text
       xml:space="preserve"
       style="font-style:normal;font-weight:normal;font-size:4.23333311px;line-height:1.25;font-family:sans-serif;letter-spacing:0px;word-spacing:0px;fill:#000000;fill-opacity:1;stroke:none;stroke-width:0.26458332"
       x="90.199554"
       y="48.087265"
       id="text819"><tspan
         sodipodi:role="line"
         id="tspan817"
         x="90.199554"
         y="48.087265"
         style="stroke-width:0.26458332">Tactos Publisher</tspan></text>
    <g
       id="g1161"
       transform="translate(-1.2091025)">
      <g
         transform="translate(4.2333335,0.52916667)"
         id="g851">
        <rect
           style="opacity:1;fill:none;fill-opacity:1;stroke:#000000;stroke-width:0.59881818;stroke-linecap:square;stroke-linejoin:round;stroke-miterlimit:4;stroke-dasharray:none;stroke-dashoffset:0;stroke-opacity:1"
           id="rect821"
           width="40.867039"
           height="10.466599"
           x="45.191593"
           y="53.375637"
           ry="0" />
        <text
           xml:space="preserve"
           style="font-style:normal;font-weight:normal;font-size:4.23333311px;line-height:1.25;font-family:sans-serif;letter-spacing:0px;word-spacing:0px;fill:#000000;fill-opacity:1;stroke:none;stroke-width:0.26458332"
           x="47.038136"
           y="60.187134"
           id="text825"><tspan
             sodipodi:role="line"
             id="tspan823"
             x="47.038136"
             y="60.187134"
             style="stroke-width:0.26458332">Tactos-Core-Color</tspan></text>
      </g>
      <g
         transform="translate(4.2333335,1.3999858)"
         id="g856">
        <rect
           style="opacity:1;fill:none;fill-opacity:1;stroke:#000000;stroke-width:0.59881818;stroke-linecap:square;stroke-linejoin:round;stroke-miterlimit:4;stroke-dasharray:none;stroke-dashoffset:0;stroke-opacity:1"
           id="rect821-0"
           width="40.867039"
           height="10.466599"
           x="112.66055"
           y="52.504818"
           ry="0" />
        <text
           xml:space="preserve"
           style="font-style:normal;font-weight:normal;font-size:4.23333311px;line-height:1.25;font-family:sans-serif;letter-spacing:0px;word-spacing:0px;fill:#000000;fill-opacity:1;stroke:none;stroke-width:0.26458332"
           x="113.89421"
           y="59.27911"
           id="text825-4"><tspan
             sodipodi:role="line"
             id="tspan823-7"
             x="113.89421"
             y="59.27911"
             style="stroke-width:0.26458332">Tactos-Core-AT-SPI</tspan></text>
      </g>
    </g>
    <rect
       style="opacity:1;fill:none;fill-opacity:1;stroke:#000000;stroke-width:0.38970929;stroke-linecap:square;stroke-linejoin:round;stroke-miterlimit:4;stroke-dasharray:none;stroke-dashoffset:0;stroke-opacity:1"
       id="rect864"
       width="63.769772"
       height="27.484262"
       x="72.849136"
       y="93.409935"
       ry="2.9520135" />
    <text
       xml:space="preserve"
       style="font-style:normal;font-weight:normal;font-size:4.23333311px;line-height:1.25;font-family:sans-serif;letter-spacing:0px;word-spacing:0px;fill:#000000;fill-opacity:1;stroke:none;stroke-width:0.26458332"
       x="82.479469"
       y="99.606895"
       id="text868"><tspan
         sodipodi:role="line"
         id="tspan866"
         x="82.479469"
         y="99.606895"
         style="stroke-width:0.26458332">Tactos-IPC interface</tspan></text>
    <rect
       style="opacity:1;fill:none;fill-opacity:1;stroke:#000000;stroke-width:0.57423651;stroke-linecap:square;stroke-linejoin:round;stroke-miterlimit:4;stroke-dasharray:none;stroke-dashoffset:0;stroke-opacity:1"
       id="rect864-6"
       width="115.8726"
       height="32.841148"
       x="44.447525"
       y="145.99654"
       ry="3.5273826" />
    <text
       xml:space="preserve"
       style="font-style:normal;font-weight:normal;font-size:4.23333311px;line-height:1.25;font-family:sans-serif;letter-spacing:0px;word-spacing:0px;fill:#000000;fill-opacity:1;stroke:none;stroke-width:0.26458332"
       x="87.58783"
       y="154.95644"
       id="text887"><tspan
         sodipodi:role="line"
         id="tspan885"
         x="87.58783"
         y="154.95644"
         style="stroke-width:0.26458332">Tactos Reader</tspan></text>
    <g
       id="g1171"
       transform="translate(-2.0997765)">
      <g
         transform="translate(7.7216948,108.86604)"
         id="g851-8">
        <rect
           style="opacity:1;fill:none;fill-opacity:1;stroke:#000000;stroke-width:0.59881818;stroke-linecap:square;stroke-linejoin:round;stroke-miterlimit:4;stroke-dasharray:none;stroke-dashoffset:0;stroke-opacity:1"
           id="rect821-9"
           width="40.867039"
           height="10.466599"
           x="45.191593"
           y="53.375637"
           ry="0" />
        <text
           xml:space="preserve"
           style="font-style:normal;font-weight:normal;font-size:4.23333311px;line-height:1.25;font-family:sans-serif;letter-spacing:0px;word-spacing:0px;fill:#000000;fill-opacity:1;stroke:none;stroke-width:0.26458332"
           x="53.522491"
           y="60.187134"
           id="text825-0"><tspan
             sodipodi:role="line"
             id="tspan823-6"
             x="53.522491"
             y="60.187134"
             style="stroke-width:0.26458332">Tactos-mit4</tspan></text>
      </g>
      <g
         transform="translate(69.99528,108.43358)"
         id="g851-87">
        <rect
           style="opacity:1;fill:none;fill-opacity:1;stroke:#000000;stroke-width:0.59881818;stroke-linecap:square;stroke-linejoin:round;stroke-miterlimit:4;stroke-dasharray:none;stroke-dashoffset:0;stroke-opacity:1"
           id="rect821-90"
           width="40.867039"
           height="10.466599"
           x="45.191593"
           y="53.375637"
           ry="0" />
        <text
           xml:space="preserve"
           style="font-style:normal;font-weight:normal;font-size:4.23333311px;line-height:1.25;font-family:sans-serif;letter-spacing:0px;word-spacing:0px;fill:#000000;fill-opacity:1;stroke:none;stroke-width:0.26458332"
           x="53.380901"
           y="60.187134"
           id="text825-3"><tspan
             sodipodi:role="line"
             id="tspan823-3"
             x="53.380901"
             y="60.187134"
             style="stroke-width:0.26458332">Tactos-term</tspan></text>
      </g>
    </g>
    <g
       id="g851-3"
       transform="translate(42.27252,162.06268)" />
    <path
       style="fill:none;stroke:#000000;stroke-width:0.26054013;stroke-linecap:butt;stroke-linejoin:miter;stroke-miterlimit:4;stroke-dasharray:none;stroke-opacity:1;marker-end:url(#Arrow1Lend)"
       d="m 75.460001,145.55471 9.953374,-24.22847"
       id="path952"
       inkscape:connector-curvature="0" />
    <path
       style="fill:none;stroke:#000000;stroke-width:0.26458332px;stroke-linecap:butt;stroke-linejoin:miter;stroke-opacity:1;marker-end:url(#marker1248)"
       d="m 116.54674,120.90657 7.13551,24.86619"
       id="path1238"
       inkscape:connector-curvature="0" />
    <text
       xml:space="preserve"
       style="font-style:normal;font-weight:normal;font-size:4.23333311px;line-height:1.25;font-family:sans-serif;letter-spacing:0px;word-spacing:0px;fill:#000000;fill-opacity:1;stroke:none;stroke-width:0.26458332"
       x="121.85572"
       y="132.56004"
       id="text1276"><tspan
         sodipodi:role="line"
         id="tspan1274"
         x="121.85572"
         y="132.56004"
         style="stroke-width:0.26458332">Notify : Matrix_changed</tspan></text>
    <text
       xml:space="preserve"
       style="font-style:normal;font-weight:normal;font-size:4.23333311px;line-height:1.25;font-family:sans-serif;letter-spacing:0px;word-spacing:0px;fill:#000000;fill-opacity:1;stroke:none;stroke-width:0.26458332"
       x="36.201248"
       y="134.35831"
       id="text1280"><tspan
         sodipodi:role="line"
         id="tspan1278"
         x="36.201248"
         y="134.35831"
         style="stroke-width:0.26458332">Define : Matrix_size</tspan></text>
    <path
       style="fill:none;stroke:#000000;stroke-width:0.25828514px;stroke-linecap:butt;stroke-linejoin:miter;stroke-opacity:1;marker-end:url(#marker1310)"
       d="m 137.09307,71.693497 -7.14487,20.99016"
       id="path1300"
       inkscape:connector-curvature="0" />
    <path
       style="fill:none;stroke:#000000;stroke-width:0.26458332px;stroke-linecap:butt;stroke-linejoin:miter;stroke-opacity:1;marker-end:url(#marker1352)"
       d="M 92.761692,93.313487 82.598989,71.906941"
       id="path1342"
       inkscape:connector-curvature="0"
       sodipodi:nodetypes="cc" />
    <text
       xml:space="preserve"
       style="font-style:normal;font-weight:normal;font-size:4.23333311px;line-height:1.25;font-family:sans-serif;letter-spacing:0px;word-spacing:0px;fill:#000000;fill-opacity:1;stroke:none;stroke-width:0.26458332"
       x="136.43968"
       y="83.583237"
       id="text1542"><tspan
         sodipodi:role="line"
         id="tspan1540"
         x="136.43968"
         y="83.583237"
         style="stroke-width:0.26458332">Update : Matrix</tspan></text>
    <text
       xml:space="preserve"
       style="font-style:normal;font-weight:normal;font-size:4.23333311px;line-height:1.25;font-family:sans-serif;letter-spacing:0px;word-spacing:0px;fill:#000000;fill-opacity:1;stroke:none;stroke-width:0.26458332"
       x="26.187202"
       y="84.664383"
       id="text1546"><tspan
         sodipodi:role="line"
         id="tspan1544"
         x="26.187202"
         y="84.664383"
         style="stroke-width:0.26458332">Notify : Matrix_size_changed</tspan></text>
    <g
       id="g856-5"
       transform="translate(-28.360048,51.690244)">
      <rect
         ry="0"
         y="52.504818"
         x="112.66055"
         height="10.466599"
         width="40.867039"
         id="rect821-0-8"
         style="opacity:1;fill:none;fill-opacity:1;stroke:#000000;stroke-width:0.59881818;stroke-linecap:square;stroke-linejoin:round;stroke-miterlimit:4;stroke-dasharray:none;stroke-dashoffset:0;stroke-opacity:1" />
      <text
         id="text825-4-7"
         y="59.27911"
         x="120.27728"
         style="font-style:normal;font-weight:normal;font-size:4.23333311px;line-height:1.25;font-family:sans-serif;letter-spacing:0px;word-spacing:0px;fill:#000000;fill-opacity:1;stroke:none;stroke-width:0.26458332"
         xml:space="preserve"><tspan
           style="stroke-width:0.26458332"
           y="59.27911"
           x="120.27728"
           id="tspan823-7-9"
           sodipodi:role="line">Tactos-DBus</tspan></text>
    </g>
  </g>
</svg>
